com/tsystems/javaschool/tasks/pyramid/CannotBuildPyramidException.class
com/tsystems/javaschool/tasks/mytests/SubseqTest.class
com/tsystems/javaschool/tasks/pyramid/PyramidBuilder.class
com/tsystems/javaschool/tasks/calculator/ParseException.class
com/tsystems/javaschool/tasks/mytests/TestPyramid.class
com/tsystems/javaschool/tasks/calculator/Result.class
com/tsystems/javaschool/tasks/calculator/Calculator.class
com/tsystems/javaschool/tasks/subsequence/Subsequence.class
com/tsystems/javaschool/tasks/mytests/CalcTest.class
