/home/nikita/javaschool/src/main/java/com/tsystems/javaschool/tasks/mytests/SubseqTest.java
/home/nikita/javaschool/src/main/java/com/tsystems/javaschool/tasks/pyramid/PyramidBuilder.java
/home/nikita/javaschool/src/main/java/com/tsystems/javaschool/tasks/pyramid/CannotBuildPyramidException.java
/home/nikita/javaschool/src/main/java/com/tsystems/javaschool/tasks/mytests/TestPyramid.java
/home/nikita/javaschool/src/main/java/com/tsystems/javaschool/tasks/subsequence/Subsequence.java
/home/nikita/javaschool/src/main/java/com/tsystems/javaschool/tasks/mytests/CalcTest.java
/home/nikita/javaschool/src/main/java/com/tsystems/javaschool/tasks/calculator/Result.java
/home/nikita/javaschool/src/main/java/com/tsystems/javaschool/tasks/calculator/Calculator.java
/home/nikita/javaschool/src/main/java/com/tsystems/javaschool/tasks/calculator/ParseException.java
